homework/hw02/q04/alu_tb.vcd
$date
	Tue Sep 19 15:11:56 2023
$end
$version
	Icarus Verilog
$end
$timescale
	100ps
$end
$scope module alu_tb $end
$var wire 4 ! S_expected [3:0] $end
$var wire 4 " S_actual [3:0] $end
$var reg 4 # A [3:0] $end
$var reg 4 $ B [3:0] $end
$var reg 3 % Op [2:0] $end
$var integer 32 & ia [31:0] $end
$var integer 32 ' ib [31:0] $end
$var integer 32 ( iop [31:0] $end
$scope module my_alu $end
$var wire 4 ) A [3:0] $end
$var wire 4 * B [3:0] $end
$var wire 3 + Op [2:0] $end
$var wire 4 , slt [3:0] $end
$var wire 4 - adder_out [3:0] $end
$var wire 4 . S [3:0] $end
$var wire 1 / Cout $end
$var wire 4 0 Bmux [3:0] $end
$scope module adder $end
$var wire 4 1 A [3:0] $end
$var wire 4 2 B [3:0] $end
$var wire 1 3 Cin $end
$var wire 4 4 S [3:0] $end
$var wire 1 / Cout $end
$var wire 1 5 C3 $end
$var wire 1 6 C2 $end
$var wire 1 7 C1 $end
$scope module FA1 $end
$var wire 1 8 A $end
$var wire 1 9 B $end
$var wire 1 3 Cin $end
$var wire 1 7 Cout $end
$var wire 1 : S $end
$upscope $end
$scope module FA2 $end
$var wire 1 ; A $end
$var wire 1 < B $end
$var wire 1 7 Cin $end
$var wire 1 6 Cout $end
$var wire 1 = S $end
$upscope $end
$scope module FA3 $end
$var wire 1 > A $end
$var wire 1 ? B $end
$var wire 1 6 Cin $end
$var wire 1 5 Cout $end
$var wire 1 @ S $end
$upscope $end
$scope module FA4 $end
$var wire 1 A A $end
$var wire 1 B B $end
$var wire 1 5 Cin $end
$var wire 1 / Cout $end
$var wire 1 C S $end
$upscope $end
$upscope $end
$upscope $end
$scope task check $end
$var reg 4 D a [3:0] $end
$var reg 4 E actual [3:0] $end
$var reg 4 F b [3:0] $end
$var reg 4 G expected [3:0] $end
$var reg 3 H op [2:0] $end
$upscope $end
$scope task test $end
$var reg 4 I a [3:0] $end
$var reg 4 J b [3:0] $end
$var reg 3 K op [2:0] $end
$upscope $end
$upscope $end
$enddefinitions $end
$comment Show the parameter values. $end
$dumpall
$end
#0
$dumpvars
bx K
bx J
bx I
bx H
bx G
bx F
bx E
bx D
0C
0B
0A
0@
0?
0>
0=
0<
0;
0:
09
08
07
06
05
b0 4
03
b0 2
b0 1
b0 0
0/
b0 .
b0 -
b0 ,
b0 +
b0 *
b0 )
b0 (
b11111111111111111111111111111000 '
b11111111111111111111111111111000 &
b0 %
b0 $
b0 #
b0 "
b0 !
$end
#200
b1000 J
b1000 I
b0 K
#400
1/
b1000 "
b1000 .
b0 ,
b0 -
b0 4
0C
b1000 !
1B
b1000 0
b1000 2
1A
b1000 $
b1000 *
b1000 #
b1000 )
b1000 1
#600
b11111111111111111111111111111001 '
b1000 G
b1000 E
b1000 F
b1000 D
b0 H
#800
b1001 J
#1000
b1 -
b1 4
1:
19
b1001 0
b1001 2
b1001 $
b1001 *
#1200
b11111111111111111111111111111010 '
b1001 F
#1400
b1010 J
#1600
0:
b10 -
b10 4
1=
09
1<
b1010 0
b1010 2
b1010 $
b1010 *
#1800
b11111111111111111111111111111011 '
b1010 F
#2000
b1011 J
#2200
b11 -
b11 4
1:
19
b1011 0
b1011 2
b1011 $
b1011 *
#2400
b11111111111111111111111111111100 '
b1011 F
#2600
b1100 J
#2800
0:
0=
b100 -
b100 4
1@
09
0<
1?
b1100 0
b1100 2
b1100 $
b1100 *
#3000
b11111111111111111111111111111101 '
b1100 F
#3200
b1101 J
#3400
b101 -
b101 4
1:
19
b1101 0
b1101 2
b1101 $
b1101 *
#3600
b11111111111111111111111111111110 '
b1101 F
#3800
b1110 J
#4000
0:
b110 -
b110 4
1=
09
1<
b1110 0
b1110 2
b1110 $
b1110 *
#4200
b11111111111111111111111111111111 '
b1110 F
#4400
b1111 J
#4600
b111 -
b111 4
1:
19
b1111 0
b1111 2
b1111 $
b1111 *
#4800
b0 '
b1111 F
#5000
b0 J
#5200
b1 ,
0/
0:
0=
0@
b1000 -
b1000 4
1C
b0 "
b0 .
b0 !
09
0<
0?
0B
b0 0
b0 2
b0 $
b0 *
#5400
b1 '
b0 G
b0 E
b0 F
#5600
b1 J
#5800
b1001 -
b1001 4
1:
19
b1 0
b1 2
b1 $
b1 *
#6000
b10 '
b1 F
#6200
b10 J
#6400
0:
b1010 -
b1010 4
1=
09
1<
b10 0
b10 2
b10 $
b10 *
#6600
b11 '
b10 F
#6800
b11 J
#7000
b1011 -
b1011 4
1:
19
b11 0
b11 2
b11 $
b11 *
#7200
b100 '
b11 F
#7400
b100 J
#7600
0:
0=
b1100 -
b1100 4
1@
09
0<
1?
b100 0
b100 2
b100 $
b100 *
#7800
b101 '
b100 F
#8000
b101 J
#8200
b1101 -
b1101 4
1:
19
b101 0
b101 2
b101 $
b101 *
#8400
b110 '
b101 F
#8600
b110 J
#8800
0:
b1110 -
b1110 4
1=
09
1<
b110 0
b110 2
b110 $
b110 *
#9000
b111 '
b110 F
#9200
b111 J
#9400
b1111 -
b1111 4
1:
19
b111 0
b111 2
b111 $
b111 *
#9600
b11111111111111111111111111111001 &
b11111111111111111111111111111000 '
b111 F
#9800
b1000 J
b1001 I
#10000
0=
b0 ,
1/
0@
0C
07
b1000 "
b1000 .
b1 -
b1 4
1:
b1000 !
09
0<
0?
1B
b1000 0
b1000 2
18
b1000 $
b1000 *
b1001 #
b1001 )
b1001 1
#10200
b11111111111111111111111111111001 '
b1000 G
b1000 E
b1000 F
b1001 D
#10400
b1001 J
#10600
1=
17
b10 -
b10 4
0:
b1001 "
b1001 .
b1001 !
19
b1001 0
b1001 2
b1001 $
b1001 *
#10800
b11111111111111111111111111111010 '
b1001 G
b1001 E
b1001 F
#11000
b1010 J
#11200
07
0@
1:
b11 -
b11 4
1=
06
b1000 "
b1000 .
b1000 !
09
1<
b1010 0
b1010 2
b1010 $
b1010 *
#11400
b11111111111111111111111111111011 '
b1000 G
b1000 E
b1010 F
#11600
b1011 J
#11800
1@
16
0=
17
b100 -
b100 4
0:
b1001 "
b1001 .
b1001 !
19
b1011 0
b1011 2
b1011 $
b1011 *
#12000
b11111111111111111111111111111100 '
b1001 G
b1001 E
b1011 F
#12200
b1100 J
#12400
b0 ,
07
0C
1:
0=
06
b101 -
b101 4
1@
05
b1000 "
b1000 .
b1000 !
09
0<
1?
b1100 0
b1100 2
b1100 $
b1100 *
#12600
b11111111111111111111111111111101 '
b1000 G
b1000 E
b1100 F
#12800
b1101 J
#13000
1=
17
b110 -
b110 4
0:
b1001 "
b1001 .
b1001 !
19
b1101 0
b1101 2
b1101 $
b1101 *
#13200
b11111111111111111111111111111110 '
b1001 G
b1001 E
b1101 F
#13400
b1110 J
#13600
b0 ,
0C
05
07
1@
1:
b111 -
b111 4
1=
06
b1000 "
b1000 .
b1000 !
09
1<
b1110 0
b1110 2
b1110 $
b1110 *
#13800
b11111111111111111111111111111111 '
b1000 G
b1000 E
b1110 F
#14000
b1111 J
#14200
b1 ,
1C
15
0@
16
0=
17
b1000 -
b1000 4
0:
b1001 "
b1001 .
b1001 !
19
b1111 0
b1111 2
b1111 $
b1111 *
#14400
b0 '
b1001 G
b1001 E
b1111 F
#14600
b0 J
#14800
0/
07
b1 ,
1:
0=
06
0@
05
b1001 -
b1001 4
1C
b0 "
b0 .
b0 !
09
0<
0?
0B
b0 0
b0 2
b0 $
b0 *
#15000
b1 '
b0 G
b0 E
b0 F
#15200
b1 J
#15400
1=
17
b1010 -
b1010 4
0:
b1 "
b1 .
b1 !
19
b1 0
b1 2
b1 $
b1 *
#15600
b10 '
b1 G
b1 E
b1 F
#15800
b10 J
#16000
07
0@
1:
b1011 -
b1011 4
1=
06
b0 "
b0 .
b0 !
09
1<
b10 0
b10 2
b10 $
b10 *
#16200
b11 '
b0 G
b0 E
b10 F
#16400
b11 J
#16600
1@
16
0=
17
b1100 -
b1100 4
0:
b1 "
b1 .
b1 !
19
b11 0
b11 2
b11 $
b11 *
#16800
b100 '
b1 G
b1 E
b11 F
#17000
b100 J
#17200
0/
b1 ,
07
1C
1:
0=
06
b1101 -
b1101 4
1@
05
b0 "
b0 .
b0 !
09
0<
1?
b100 0
b100 2
b100 $
b100 *
#17400
b101 '
b0 G
b0 E
b100 F
#17600
b101 J
#17800
1=
17
b1110 -
b1110 4
0:
b1 "
b1 .
b1 !
19
b101 0
b101 2
b101 $
b101 *
#18000
b110 '
b1 G
b1 E
b101 F
#18200
b110 J
#18400
0/
b1 ,
1C
05
07
1@
1:
b1111 -
b1111 4
1=
06
b0 "
b0 .
b0 !
09
1<
b110 0
b110 2
b110 $
b110 *
#18600
b111 '
b0 G
b0 E
b110 F
#18800
b111 J
#19000
1/
b0 ,
0C
15
0@
16
0=
17
b0 -
b0 4
0:
b1 "
b1 .
b1 !
19
b111 0
b111 2
b111 $
b111 *
#19200
b11111111111111111111111111111010 &
b11111111111111111111111111111000 '
b1 G
b1 E
b111 F
#19400
b1000 J
b1010 I
#19600
06
b0 ,
0@
05
0C
07
b1000 "
b1000 .
0:
b10 -
b10 4
1=
b1000 !
09
0<
0?
1B
b1000 0
b1000 2
08
1;
b1000 $
b1000 *
b1010 #
b1010 )
b1010 1
#19800
b11111111111111111111111111111001 '
b1000 G
b1000 E
b1000 F
b1010 D
#20000
b1001 J
#20200
b11 -
b11 4
1:
19
b1001 0
b1001 2
b1001 $
b1001 *
#20400
b11111111111111111111111111111010 '
b1001 F
#20600
b1010 J
#20800
1@
16
0:
b100 -
b100 4
0=
b1010 "
b1010 .
b1010 !
09
1<
b1010 0
b1010 2
b1010 $
b1010 *
#21000
b11111111111111111111111111111011 '
b1010 G
b1010 E
b1010 F
#21200
b1011 J
#21400
b101 -
b101 4
1:
19
b1011 0
b1011 2
b1011 $
b1011 *
#21600
b11111111111111111111111111111100 '
b1011 F
#21800
b1100 J
#22000
b0 ,
06
0C
0:
1=
b110 -
b110 4
1@
05
b1000 "
b1000 .
b1000 !
09
0<
1?
b1100 0
b1100 2
b1100 $
b1100 *
#22200
b11111111111111111111111111111101 '
b1000 G
b1000 E
b1100 F
#22400
b1101 J
#22600
b111 -
b111 4
1:
19
b1101 0
b1101 2
b1101 $
b1101 *
#22800
b11111111111111111111111111111110 '
b1101 F
#23000
b1110 J
#23200
b1 ,
1C
15
0@
16
0:
b1000 -
b1000 4
0=
b1010 "
b1010 .
b1010 !
09
1<
b1110 0
b1110 2
b1110 $
b1110 *
#23400
b11111111111111111111111111111111 '
b1010 G
b1010 E
b1110 F
#23600
b1111 J
#23800
b1001 -
b1001 4
1:
19
b1111 0
b1111 2
b1111 $
b1111 *
#24000
b0 '
b1111 F
#24200
b0 J
#24400
0/
06
b1 ,
0:
1=
0@
05
b1010 -
b1010 4
1C
b0 "
b0 .
b0 !
09
0<
0?
0B
b0 0
b0 2
b0 $
b0 *
#24600
b1 '
b0 G
b0 E
b0 F
#24800
b1 J
#25000
b1011 -
b1011 4
1:
19
b1 0
b1 2
b1 $
b1 *
#25200
b10 '
b1 F
#25400
b10 J
#25600
1@
16
0:
b1100 -
b1100 4
0=
b10 "
b10 .
b10 !
09
1<
b10 0
b10 2
b10 $
b10 *
#25800
b11 '
b10 G
b10 E
b10 F
#26000
b11 J
#26200
b1101 -
b1101 4
1:
19
b11 0
b11 2
b11 $
b11 *
#26400
b100 '
b11 F
#26600
b100 J
#26800
0/
b1 ,
06
1C
0:
1=
b1110 -
b1110 4
1@
05
b0 "
b0 .
b0 !
09
0<
1?
b100 0
b100 2
b100 $
b100 *
#27000
b101 '
b0 G
b0 E
b100 F
#27200
b101 J
#27400
b1111 -
b1111 4
1:
19
b101 0
b101 2
b101 $
b101 *
#27600
b110 '
b101 F
#27800
b110 J
#28000
1/
b0 ,
0C
15
0@
16
0:
b0 -
b0 4
0=
b10 "
b10 .
b10 !
09
1<
b110 0
b110 2
b110 $
b110 *
#28200
b111 '
b10 G
b10 E
b110 F
#28400
b111 J
#28600
b1 -
b1 4
1:
19
b111 0
b111 2
b111 $
b111 *
#28800
b11111111111111111111111111111011 &
b11111111111111111111111111111000 '
b111 F
#29000
b1000 J
b1011 I
#29200
1=
06
b0 ,
0@
05
0C
07
b1000 "
b1000 .
b11 -
b11 4
1:
b1000 !
09
0<
0?
1B
b1000 0
b1000 2
18
b1000 $
b1000 *
b1011 #
b1011 )
b1011 1
#29400
b11111111111111111111111111111001 '
b1000 G
b1000 E
b1000 F
b1011 D
#29600
b1001 J
#29800
1@
16
0=
17
b100 -
b100 4
0:
b1001 "
b1001 .
b1001 !
19
b1001 0
b1001 2
b1001 $
b1001 *
#30000
b11111111111111111111111111111010 '
b1001 G
b1001 E
b1001 F
#30200
b1010 J
#30400
07
1:
b101 -
b101 4
0=
b1010 "
b1010 .
b1010 !
09
1<
b1010 0
b1010 2
b1010 $
b1010 *
#30600
b11111111111111111111111111111011 '
b1010 G
b1010 E
b1010 F
#30800
b1011 J
#31000
1=
17
b110 -
b110 4
0:
b1011 "
b1011 .
b1011 !
19
b1011 0
b1011 2
b1011 $
b1011 *
#31200
b11111111111111111111111111111100 '
b1011 G
b1011 E
b1011 F
#31400
b1100 J
#31600
06
b0 ,
07
0C
1:
1=
b111 -
b111 4
1@
05
b1000 "
b1000 .
b1000 !
09
0<
1?
b1100 0
b1100 2
b1100 $
b1100 *
#31800
b11111111111111111111111111111101 '
b1000 G
b1000 E
b1100 F
#32000
b1101 J
#32200
b1 ,
1C
15
0@
16
0=
17
b1000 -
b1000 4
0:
b1001 "
b1001 .
b1001 !
19
b1101 0
b1101 2
b1101 $
b1101 *
#32400
b11111111111111111111111111111110 '
b1001 G
b1001 E
b1101 F
#32600
b1110 J
#32800
07
1:
b1001 -
b1001 4
0=
b1010 "
b1010 .
b1010 !
09
1<
b1110 0
b1110 2
b1110 $
b1110 *
#33000
b11111111111111111111111111111111 '
b1010 G
b1010 E
b1110 F
#33200
b1111 J
#33400
1=
17
b1010 -
b1010 4
0:
b1011 "
b1011 .
b1011 !
19
b1111 0
b1111 2
b1111 $
b1111 *
#33600
b0 '
b1011 G
b1011 E
b1111 F
#33800
b0 J
#34000
06
0/
07
b1 ,
1:
1=
0@
05
b1011 -
b1011 4
1C
b0 "
b0 .
b0 !
09
0<
0?
0B
b0 0
b0 2
b0 $
b0 *
#34200
b1 '
b0 G
b0 E
b0 F
#34400
b1 J
#34600
1@
16
0=
17
b1100 -
b1100 4
0:
b1 "
b1 .
b1 !
19
b1 0
b1 2
b1 $
b1 *
#34800
b10 '
b1 G
b1 E
b1 F
#35000
b10 J
#35200
07
1:
b1101 -
b1101 4
0=
b10 "
b10 .
b10 !
09
1<
b10 0
b10 2
b10 $
b10 *
#35400
b11 '
b10 G
b10 E
b10 F
#35600
b11 J
#35800
1=
17
b1110 -
b1110 4
0:
b11 "
b11 .
b11 !
19
b11 0
b11 2
b11 $
b11 *
#36000
b100 '
b11 G
b11 E
b11 F
#36200
b100 J
#36400
06
0/
b1 ,
07
1C
1:
1=
b1111 -
b1111 4
1@
05
b0 "
b0 .
b0 !
09
0<
1?
b100 0
b100 2
b100 $
b100 *
#36600
b101 '
b0 G
b0 E
b100 F
#36800
b101 J
#37000
1/
b0 ,
0C
15
0@
16
0=
17
b0 -
b0 4
0:
b1 "
b1 .
b1 !
19
b101 0
b101 2
b101 $
b101 *
#37200
b110 '
b1 G
b1 E
b101 F
#37400
b110 J
#37600
07
1:
b1 -
b1 4
0=
b10 "
b10 .
b10 !
09
1<
b110 0
b110 2
b110 $
b110 *
#37800
b111 '
b10 G
b10 E
b110 F
#38000
b111 J
#38200
1=
17
b10 -
b10 4
0:
b11 "
b11 .
b11 !
19
b111 0
b111 2
b111 $
b111 *
#38400
b11111111111111111111111111111100 &
b11111111111111111111111111111000 '
b11 G
b11 E
b111 F
#38600
b1000 J
b1100 I
#38800
05
b0 ,
0C
07
06
b1000 "
b1000 .
0:
0=
b100 -
b100 4
1@
b1000 !
09
0<
0?
1B
b1000 0
b1000 2
08
0;
1>
b1000 $
b1000 *
b1100 #
b1100 )
b1100 1
#39000
b11111111111111111111111111111001 '
b1000 G
b1000 E
b1000 F
b1100 D
#39200
b1001 J
#39400
b101 -
b101 4
1:
19
b1001 0
b1001 2
b1001 $
b1001 *
#39600
b11111111111111111111111111111010 '
b1001 F
#39800
b1010 J
#40000
0:
b110 -
b110 4
1=
09
1<
b1010 0
b1010 2
b1010 $
b1010 *
#40200
b11111111111111111111111111111011 '
b1010 F
#40400
b1011 J
#40600
b111 -
b111 4
1:
19
b1011 0
b1011 2
b1011 $
b1011 *
#40800
b11111111111111111111111111111100 '
b1011 F
#41000
b1100 J
#41200
b1 ,
1C
15
0:
0=
b1000 -
b1000 4
0@
b1100 "
b1100 .
b1100 !
09
0<
1?
b1100 0
b1100 2
b1100 $
b1100 *
#41400
b11111111111111111111111111111101 '
b1100 G
b1100 E
b1100 F
#41600
b1101 J
#41800
b1001 -
b1001 4
1:
19
b1101 0
b1101 2
b1101 $
b1101 *
#42000
b11111111111111111111111111111110 '
b1101 F
#42200
b1110 J
#42400
0:
b1010 -
b1010 4
1=
09
1<
b1110 0
b1110 2
b1110 $
b1110 *
#42600
b11111111111111111111111111111111 '
b1110 F
#42800
b1111 J
#43000
b1011 -
b1011 4
1:
19
b1111 0
b1111 2
b1111 $
b1111 *
#43200
b0 '
b1111 F
#43400
b0 J
#43600
0/
05
b1 ,
0:
0=
1@
b1100 -
b1100 4
1C
b0 "
b0 .
b0 !
09
0<
0?
0B
b0 0
b0 2
b0 $
b0 *
#43800
b1 '
b0 G
b0 E
b0 F
#44000
b1 J
#44200
b1101 -
b1101 4
1:
19
b1 0
b1 2
b1 $
b1 *
#44400
b10 '
b1 F
#44600
b10 J
#44800
0:
b1110 -
b1110 4
1=
09
1<
b10 0
b10 2
b10 $
b10 *
#45000
b11 '
b10 F
#45200
b11 J
#45400
b1111 -
b1111 4
1:
19
b11 0
b11 2
b11 $
b11 *
#45600
b100 '
b11 F
#45800
b100 J
#46000
1/
b0 ,
0C
15
0:
0=
b0 -
b0 4
0@
b100 "
b100 .
b100 !
09
0<
1?
b100 0
b100 2
b100 $
b100 *
#46200
b101 '
b100 G
b100 E
b100 F
#46400
b101 J
#46600
b1 -
b1 4
1:
19
b101 0
b101 2
b101 $
b101 *
#46800
b110 '
b101 F
#47000
b110 J
#47200
0:
b10 -
b10 4
1=
09
1<
b110 0
b110 2
b110 $
b110 *
#47400
b111 '
b110 F
#47600
b111 J
#47800
b11 -
b11 4
1:
19
b111 0
b111 2
b111 $
b111 *
#48000
b11111111111111111111111111111101 &
b11111111111111111111111111111000 '
b111 F
#48200
b1000 J
b1101 I
#48400
0=
05
b0 ,
1@
0C
07
b1000 "
b1000 .
b101 -
b101 4
1:
b1000 !
09
0<
0?
1B
b1000 0
b1000 2
18
b1000 $
b1000 *
b1101 #
b1101 )
b1101 1
#48600
b11111111111111111111111111111001 '
b1000 G
b1000 E
b1000 F
b1101 D
#48800
b1001 J
#49000
1=
17
b110 -
b110 4
0:
b1001 "
b1001 .
b1001 !
19
b1001 0
b1001 2
b1001 $
b1001 *
#49200
b11111111111111111111111111111010 '
b1001 G
b1001 E
b1001 F
#49400
b1010 J
#49600
b0 ,
0C
05
07
1@
1:
b111 -
b111 4
1=
06
b1000 "
b1000 .
b1000 !
09
1<
b1010 0
b1010 2
b1010 $
b1010 *
#49800
b11111111111111111111111111111011 '
b1000 G
b1000 E
b1010 F
#50000
b1011 J
#50200
b1 ,
1C
15
0@
16
0=
17
b1000 -
b1000 4
0:
b1001 "
b1001 .
b1001 !
19
b1011 0
b1011 2
b1011 $
b1011 *
#50400
b11111111111111111111111111111100 '
b1001 G
b1001 E
b1011 F
#50600
b1100 J
#50800
07
1:
0=
06
b1001 -
b1001 4
0@
b1100 "
b1100 .
b1100 !
09
0<
1?
b1100 0
b1100 2
b1100 $
b1100 *
#51000
b11111111111111111111111111111101 '
b1100 G
b1100 E
b1100 F
#51200
b1101 J
#51400
1=
17
b1010 -
b1010 4
0:
b1101 "
b1101 .
b1101 !
19
b1101 0
b1101 2
b1101 $
b1101 *
#51600
b11111111111111111111111111111110 '
b1101 G
b1101 E
b1101 F
#51800
b1110 J
#52000
07
0@
1:
b1011 -
b1011 4
1=
06
b1100 "
b1100 .
b1100 !
09
1<
b1110 0
b1110 2
b1110 $
b1110 *
#52200
b11111111111111111111111111111111 '
b1100 G
b1100 E
b1110 F
#52400
b1111 J
#52600
1@
16
0=
17
b1100 -
b1100 4
0:
b1101 "
b1101 .
b1101 !
19
b1111 0
b1111 2
b1111 $
b1111 *
#52800
b0 '
b1101 G
b1101 E
b1111 F
#53000
b0 J
#53200
0/
05
07
b1 ,
1:
0=
06
1@
b1101 -
b1101 4
1C
b0 "
b0 .
b0 !
09
0<
0?
0B
b0 0
b0 2
b0 $
b0 *
#53400
b1 '
b0 G
b0 E
b0 F
#53600
b1 J
#53800
1=
17
b1110 -
b1110 4
0:
b1 "
b1 .
b1 !
19
b1 0
b1 2
b1 $
b1 *
#54000
b10 '
b1 G
b1 E
b1 F
#54200
b10 J
#54400
0/
b1 ,
1C
05
07
1@
1:
b1111 -
b1111 4
1=
06
b0 "
b0 .
b0 !
09
1<
b10 0
b10 2
b10 $
b10 *
#54600
b11 '
b0 G
b0 E
b10 F
#54800
b11 J
#55000
1/
b0 ,
0C
15
0@
16
0=
17
b0 -
b0 4
0:
b1 "
b1 .
b1 !
19
b11 0
b11 2
b11 $
b11 *
#55200
b100 '
b1 G
b1 E
b11 F
#55400
b100 J
#55600
07
1:
0=
06
b1 -
b1 4
0@
b100 "
b100 .
b100 !
09
0<
1?
b100 0
b100 2
b100 $
b100 *
#55800
b101 '
b100 G
b100 E
b100 F
#56000
b101 J
#56200
1=
17
b10 -
b10 4
0:
b101 "
b101 .
b101 !
19
b101 0
b101 2
b101 $
b101 *
#56400
b110 '
b101 G
b101 E
b101 F
#56600
b110 J
#56800
07
0@
1:
b11 -
b11 4
1=
06
b100 "
b100 .
b100 !
09
1<
b110 0
b110 2
b110 $
b110 *
#57000
b111 '
b100 G
b100 E
b110 F
#57200
b111 J
#57400
1@
16
0=
17
b100 -
b100 4
0:
b101 "
b101 .
b101 !
19
b111 0
b111 2
b111 $
b111 *
#57600
b11111111111111111111111111111110 &
b11111111111111111111111111111000 '
b101 G
b101 E
b111 F
#57800
b1000 J
b1110 I
#58000
05
06
b0 ,
1@
0C
07
b1000 "
b1000 .
0:
b110 -
b110 4
1=
b1000 !
09
0<
0?
1B
b1000 0
b1000 2
08
1;
b1000 $
b1000 *
b1110 #
b1110 )
b1110 1
#58200
b11111111111111111111111111111001 '
b1000 G
b1000 E
b1000 F
b1110 D
#58400
b1001 J
#58600
b111 -
b111 4
1:
19
b1001 0
b1001 2
b1001 $
b1001 *
#58800
b11111111111111111111111111111010 '
b1001 F
#59000
b1010 J
#59200
b1 ,
1C
15
0@
16
0:
b1000 -
b1000 4
0=
b1010 "
b1010 .
b1010 !
09
1<
b1010 0
b1010 2
b1010 $
b1010 *
#59400
b11111111111111111111111111111011 '
b1010 G
b1010 E
b1010 F
#59600
b1011 J
#59800
b1001 -
b1001 4
1:
19
b1011 0
b1011 2
b1011 $
b1011 *
#60000
b11111111111111111111111111111100 '
b1011 F
#60200
b1100 J
#60400
06
0:
1=
b1010 -
b1010 4
0@
b1100 "
b1100 .
b1100 !
09
0<
1?
b1100 0
b1100 2
b1100 $
b1100 *
#60600
b11111111111111111111111111111101 '
b1100 G
b1100 E
b1100 F
#60800
b1101 J
#61000
b1011 -
b1011 4
1:
19
b1101 0
b1101 2
b1101 $
b1101 *
#61200
b11111111111111111111111111111110 '
b1101 F
#61400
b1110 J
#61600
1@
16
0:
b1100 -
b1100 4
0=
b1110 "
b1110 .
b1110 !
09
1<
b1110 0
b1110 2
b1110 $
b1110 *
#61800
b11111111111111111111111111111111 '
b1110 G
b1110 E
b1110 F
#62000
b1111 J
#62200
b1101 -
b1101 4
1:
19
b1111 0
b1111 2
b1111 $
b1111 *
#62400
b0 '
b1111 F
#62600
b0 J
#62800
0/
05
06
b1 ,
0:
1=
1@
b1110 -
b1110 4
1C
b0 "
b0 .
b0 !
09
0<
0?
0B
b0 0
b0 2
b0 $
b0 *
#63000
b1 '
b0 G
b0 E
b0 F
#63200
b1 J
#63400
b1111 -
b1111 4
1:
19
b1 0
b1 2
b1 $
b1 *
#63600
b10 '
b1 F
#63800
b10 J
#64000
1/
b0 ,
0C
15
0@
16
0:
b0 -
b0 4
0=
b10 "
b10 .
b10 !
09
1<
b10 0
b10 2
b10 $
b10 *
#64200
b11 '
b10 G
b10 E
b10 F
#64400
b11 J
#64600
b1 -
b1 4
1:
19
b11 0
b11 2
b11 $
b11 *
#64800
b100 '
b11 F
#65000
b100 J
#65200
06
0:
1=
b10 -
b10 4
0@
b100 "
b100 .
b100 !
09
0<
1?
b100 0
b100 2
b100 $
b100 *
#65400
b101 '
b100 G
b100 E
b100 F
#65600
b101 J
#65800
b11 -
b11 4
1:
19
b101 0
b101 2
b101 $
b101 *
#66000
b110 '
b101 F
#66200
b110 J
#66400
1@
16
0:
b100 -
b100 4
0=
b110 "
b110 .
b110 !
09
1<
b110 0
b110 2
b110 $
b110 *
#66600
b111 '
b110 G
b110 E
b110 F
#66800
b111 J
#67000
b101 -
b101 4
1:
19
b111 0
b111 2
b111 $
b111 *
#67200
b11111111111111111111111111111111 &
b11111111111111111111111111111000 '
b111 F
#67400
b1000 J
b1111 I
#67600
05
1=
06
b0 ,
1@
0C
07
b1000 "
b1000 .
b111 -
b111 4
1:
b1000 !
09
0<
0?
1B
b1000 0
b1000 2
18
b1000 $
b1000 *
b1111 #
b1111 )
b1111 1
#67800
b11111111111111111111111111111001 '
b1000 G
b1000 E
b1000 F
b1111 D
#68000
b1001 J
#68200
b1 ,
1C
15
0@
16
0=
17
b1000 -
b1000 4
0:
b1001 "
b1001 .
b1001 !
19
b1001 0
b1001 2
b1001 $
b1001 *
#68400
b11111111111111111111111111111010 '
b1001 G
b1001 E
b1001 F
#68600
b1010 J
#68800
07
1:
b1001 -
b1001 4
0=
b1010 "
b1010 .
b1010 !
09
1<
b1010 0
b1010 2
b1010 $
b1010 *
#69000
b11111111111111111111111111111011 '
b1010 G
b1010 E
b1010 F
#69200
b1011 J
#69400
1=
17
b1010 -
b1010 4
0:
b1011 "
b1011 .
b1011 !
19
b1011 0
b1011 2
b1011 $
b1011 *
#69600
b11111111111111111111111111111100 '
b1011 G
b1011 E
b1011 F
#69800
b1100 J
#70000
06
07
1:
1=
b1011 -
b1011 4
0@
b1100 "
b1100 .
b1100 !
09
0<
1?
b1100 0
b1100 2
b1100 $
b1100 *
#70200
b11111111111111111111111111111101 '
b1100 G
b1100 E
b1100 F
#70400
b1101 J
#70600
1@
16
0=
17
b1100 -
b1100 4
0:
b1101 "
b1101 .
b1101 !
19
b1101 0
b1101 2
b1101 $
b1101 *
#70800
b11111111111111111111111111111110 '
b1101 G
b1101 E
b1101 F
#71000
b1110 J
#71200
07
1:
b1101 -
b1101 4
0=
b1110 "
b1110 .
b1110 !
09
1<
b1110 0
b1110 2
b1110 $
b1110 *
#71400
b11111111111111111111111111111111 '
b1110 G
b1110 E
b1110 F
#71600
b1111 J
#71800
1=
17
b1110 -
b1110 4
0:
b1111 "
b1111 .
b1111 !
19
b1111 0
b1111 2
b1111 $
b1111 *
#72000
b0 '
b1111 G
b1111 E
b1111 F
#72200
b0 J
#72400
0/
05
06
07
b1 ,
1:
1=
1@
b1111 -
b1111 4
1C
b0 "
b0 .
b0 !
09
0<
0?
0B
b0 0
b0 2
b0 $
b0 *
#72600
b1 '
b0 G
b0 E
b0 F
#72800
b1 J
#73000
1/
b0 ,
0C
15
0@
16
0=
17
b0 -
b0 4
0:
b1 "
b1 .
b1 !
19
b1 0
b1 2
b1 $
b1 *
#73200
b10 '
b1 G
b1 E
b1 F
#73400
b10 J
#73600
07
1:
b1 -
b1 4
0=
b10 "
b10 .
b10 !
09
1<
b10 0
b10 2
b10 $
b10 *
#73800
b11 '
b10 G
b10 E
b10 F
#74000
b11 J
#74200
1=
17
b10 -
b10 4
0:
b11 "
b11 .
b11 !
19
b11 0
b11 2
b11 $
b11 *
#74400
b100 '
b11 G
b11 E
b11 F
#74600
b100 J
#74800
06
07
1:
1=
b11 -
b11 4
0@
b100 "
b100 .
b100 !
09
0<
1?
b100 0
b100 2
b100 $
b100 *
#75000
b101 '
b100 G
b100 E
b100 F
#75200
b101 J
#75400
1@
16
0=
17
b100 -
b100 4
0:
b101 "
b101 .
b101 !
19
b101 0
b101 2
b101 $
b101 *
#75600
b110 '
b101 G
b101 E
b101 F
#75800
b110 J
#76000
07
1:
b101 -
b101 4
0=
b110 "
b110 .
b110 !
09
1<
b110 0
b110 2
b110 $
b110 *
#76200
b111 '
b110 G
b110 E
b110 F
#76400
b111 J
#76600
1=
17
b110 -
b110 4
0:
b111 "
b111 .
b111 !
19
b111 0
b111 2
b111 $
b111 *
#76800
b0 &
b11111111111111111111111111111000 '
b111 G
b111 E
b111 F
#77000
b1000 J
b0 I
#77200
0/
07
06
05
b1 ,
b0 "
b0 .
0:
0=
0@
b1000 -
b1000 4
1C
b0 !
09
0<
0?
1B
b1000 0
b1000 2
08
0;
0>
0A
b1000 $
b1000 *
b0 #
b0 )
b0 1
#77400
b11111111111111111111111111111001 '
b0 G
b0 E
b1000 F
b0 D
#77600
b1001 J
#77800
b1001 -
b1001 4
1:
19
b1001 0
b1001 2
b1001 $
b1001 *
#78000
b11111111111111111111111111111010 '
b1001 F
#78200
b1010 J
#78400
0:
b1010 -
b1010 4
1=
09
1<
b1010 0
b1010 2
b1010 $
b1010 *
